ignore/resultados_Tarea3.vcd
$date
	Sun Oct  8 23:11:31 2023
$end
$version
	Icarus Verilog
$end
$timescale
	1s
$end
$scope module testbench_atm_controller $end
$scope module cajero $end
$var wire 1 ! CLK $end
$var wire 4 " Digito [3:0] $end
$var wire 1 # Digito_STB $end
$var wire 32 $ Monto [31:0] $end
$var wire 1 % Monto_STB $end
$var wire 16 & PIN [15:0] $end
$var wire 1 ' RESET $end
$var wire 1 ( Tarjeta_Recibida $end
$var wire 1 ) Tipo_Trans $end
$var reg 1 * Advertencia $end
$var reg 64 + BALANCE [63:0] $end
$var reg 1 , Balance_Actualizado $end
$var reg 1 - Bloqueo $end
$var reg 1 . Entregar_Dinero $end
$var reg 1 / Fondos_Insuficientes $end
$var reg 3 0 Intento_incorrecto [2:0] $end
$var reg 1 1 Pin_Incorrecto $end
$var reg 16 2 Pin_entered [15:0] $end
$var reg 64 3 balance [63:0] $end
$var reg 3 4 estado [2:0] $end
$var reg 2 5 pinAttempts [1:0] $end
$var reg 3 6 proximo_estado [2:0] $end
$upscope $end
$upscope $end
$enddefinitions $end
#0
$dumpvars
b0 6
bx 5
b0 4
bx 3
bx 2
01
bx 0
0/
0.
0-
0,
b0 +
0*
0)
0(
1'
b1000010101010001 &
0%
bx $
0#
bx "
0!
$end
#1
b0 3
b0 0
b0 2
1!
#2
0!
0'
#3
1!
#4
0!
1(
#5
1!
#6
0!
#7
1!
#8
0!
1#
b1000 "
#9
1!
#10
0!
0#
#11
1!
#12
0!
1#
b101 "
#13
1!
#14
0!
0#
#15
1!
#16
0!
1#
#17
1!
#18
0!
0#
#19
1!
#20
0!
1#
b1111 "
#21
1!
#22
0!
0#
#23
1!
#24
0!
#25
1!
#26
0!
#27
1!
#28
0!
1#
b1000 "
#29
1!
#30
0!
0#
#31
1!
#32
0!
1#
b101 "
#33
1!
#34
0!
0#
#35
1!
#36
0!
1#
#37
1!
#38
0!
0#
#39
1!
#40
0!
1#
b1111 "
#41
1!
#42
0!
0#
#43
1!
#44
0!
#45
1!
#46
0!
#47
1!
#48
0!
1#
b1000 "
#49
1!
#50
0!
0#
#51
1!
#52
0!
1#
b101 "
#53
1!
#54
0!
0#
#55
1!
#56
0!
1#
#57
1!
#58
0!
0#
#59
1!
#60
0!
1#
b1111 "
#61
1!
#62
0!
0#
#63
1!
#64
0!
#65
1!
#66
0!
#67
1!
#68
0!
#69
1!
#70
0!
#71
1!
#72
0!
#73
1!
#74
0!
#75
1!
#76
0!
#77
1!
#78
0!
#79
1!
#80
0!
#81
1!
#82
0!
#83
1!
#84
0!
#85
1!
#86
0!
#87
1!
#88
0!
#89
1!
#90
0!
#91
1!
#92
0!
#93
1!
#94
0!
1'
#95
1!
#96
0!
0'
#97
1!
#98
0!
1#
b1000 "
#99
1!
#100
0!
0#
#101
1!
#102
0!
1#
b101 "
#103
1!
#104
0!
0#
#105
1!
#106
0!
1#
#107
1!
#108
0!
0#
#109
1!
#110
0!
1#
b1 "
#111
1!
#112
0!
0#
#113
1!
#114
0!
1)
#115
1!
#116
0!
#117
1!
#118
0!
1%
b1010101010100000 $
#119
1!
#120
0!
0%
#121
1!
#122
0!
#123
1!
#124
0!
#125
1!
#126
0!
#127
1!
#128
0!
#129
1!
#130
0!
#131
1!
#132
0!
#133
1!
0(
#134
0!
#135
1!
#136
0!
#137
1!
#138
0!
#139
1!
#140
0!
#141
1!
#142
0!
#143
1!
1(
#144
0!
#145
1!
#146
0!
#147
1!
1#
b1000 "
#148
0!
#149
1!
0#
#150
0!
#151
1!
1#
b101 "
#152
0!
#153
1!
0#
#154
0!
#155
1!
1#
#156
0!
#157
1!
0#
#158
0!
#159
1!
1#
b1 "
#160
0!
#161
1!
0#
#162
0!
#163
1!
0)
#164
0!
#165
1!
#166
0!
#167
1!
1%
b10000000 $
#168
0!
#169
1!
0%
#170
0!
#171
1!
#172
0!
#173
1!
#174
0!
#175
1!
#176
0!
#177
1!
#178
0!
#179
1!
#180
0!
#181
1!
#182
0!
0(
#183
1!
#184
0!
#185
1!
#186
0!
#187
1!
#188
0!
#189
1!
#190
0!
#191
1!
#192
0!
1(
#193
1!
#194
0!
#195
1!
#196
0!
1#
b1000 "
#197
1!
#198
0!
0#
#199
1!
#200
0!
1#
b101 "
#201
1!
#202
0!
0#
#203
1!
#204
0!
1#
#205
1!
#206
0!
0#
#207
1!
#208
0!
1#
b1 "
#209
1!
#210
0!
0#
#211
1!
#212
0!
#213
1!
#214
0!
#215
1!
#216
0!
b11111111111111111111111111111111 $
#217
1!
#218
0!
1%
#219
1!
#220
0!
0%
#221
1!
#222
0!
#223
1!
#224
0!
#225
1!
#226
0!
#227
1!
#228
0!
#229
1!
#230
0!
#231
1!
#232
0!
#233
1!
0(
#234
0!
#235
1!
#236
0!
#237
1!
#238
0!
#239
1!
#240
0!
#241
1!
#242
0!
#243
1!
1'
#244
0!
#245
1!
#246
0!
#247
1!
#248
0!
#249
1!
#250
0!
#251
1!
#252
0!
#253
1!
0'
